module InterviewAskApi

go 1.19

require (
	github.com/revel/modules v1.1.0
	github.com/revel/revel v1.1.0
)

require (
	github.com/golang/snappy v0.0.1 // indirect
	github.com/klauspost/compress v1.15.0 // indirect
	github.com/montanaflynn/stats v0.0.0-20171201202039-1bf9dbcd8cbe // indirect
	github.com/pkg/errors v0.9.1 // indirect
	github.com/xdg-go/pbkdf2 v1.0.0 // indirect
	github.com/xdg-go/scram v1.1.1 // indirect
	github.com/xdg-go/stringprep v1.0.3 // indirect
	github.com/youmark/pkcs8 v0.0.0-20181117223130-1be2e3e5546d // indirect
	golang.org/x/crypto v0.0.0-20220622213112-05595931fe9d // indirect
	golang.org/x/sync v0.0.0-20210220032951-036812b2e83c // indirect
	golang.org/x/text v0.3.7 // indirect
)

require (
	github.com/bradfitz/gomemcache v0.0.0-20220106215444-fb4bf637b56d // indirect
	github.com/fsnotify/fsnotify v1.5.1 // indirect
	github.com/go-stack/stack v1.8.1 // indirect
	github.com/golang-jwt/jwt v3.2.2+incompatible
	github.com/gomodule/redigo v1.8.8 // indirect
	github.com/google/uuid v1.3.0 // indirect
	github.com/inconshreveable/log15 v0.0.0-20201112154412-8562bdadbbac // indirect
	github.com/mattn/go-colorable v0.1.12 // indirect
	github.com/mattn/go-isatty v0.0.14 // indirect
	github.com/patrickmn/go-cache v2.1.0+incompatible // indirect
	github.com/revel/config v1.0.0 // indirect
	github.com/revel/log15 v2.11.20+incompatible // indirect
	github.com/revel/pathtree v0.0.0-20140121041023-41257a1839e9 // indirect
	github.com/xeonx/timeago v1.0.0-rc4 // indirect
	go.mongodb.org/mongo-driver v1.11.0
	golang.org/x/net v0.0.0-20220412020605-290c469a71a5 // indirect
	golang.org/x/sys v0.0.0-20220227234510-4e6760a101f9 // indirect
	gopkg.in/natefinch/lumberjack.v2 v2.0.0 // indirect
	gopkg.in/stack.v0 v0.0.0-20141108040640-9b43fcefddd0 // indirect
)
